…
ℹ Use `spec()` to retrieve the full column specification for this data.
ℹ Specify the column types or set `show_col_types = FALSE` to quiet this message.
```

```r
gapminder
```

```
# A tibble: 1,704 × 6
   country      year      pop continent lifeExp gdpPercap
   <chr>       <dbl>    <dbl> <chr>       <dbl>     <dbl>
 1 Afghanistan  1952  8425333 Asia         28.8      779.
 2 Afghanistan  1957  9240934 Asia         30.3      821.
 3 Afghanistan  1962 10267083 Asia         32.0      853.
 4 Afghanistan  1967 11537966 Asia         34.0      836.
 5 Afghanistan  1972 13079460 Asia         36.1      740.
 6 Afghanistan  1977 14880372 Asia         38.4      786.
 7 Afghanistan  1982 12881816 Asia         39.9      978.
 8 Afghanistan  1987 13867957 Asia         40.8      852.
 9 Afghanistan  1992 16317921 Asia         41.7      649.
10 Afghanistan  1997 22227415 Asia         41.8      635.
# … with 1,694 more rows
```
…
ℹ Use `spec()` to retrieve the full column specification for this data.
ℹ Specify the column types or set `show_col_types = FALSE` to quiet this message.
```

```r
gap_wide
```

```
# A tibble: 142 × 38
   continent country  pop_1952 lifeExp_1952 gdpPercap_1952 pop_1957 lifeExp_1957
   <chr>     <chr>       <dbl>        <dbl>          <dbl>    <dbl>        <dbl>
 1 Asia      Afghani…  8425333         28.8           779.  9240934         30.3
 2 Europe    Albania   1282697         55.2          1601.  1476505         59.3
 3 Africa    Algeria   9279525         43.1          2449. 10270856         45.7
 4 Africa    Angola    4232095         30.0          3521.  4561361         32.0
 5 Americas  Argenti… 17876956         62.5          5911. 19610538         64.4
 6 Oceania   Austral…  8691212         69.1         10040.  9712569         70.3
 7 Europe    Austria   6927772         66.8          6137.  6965860         67.5
 8 Asia      Bahrain    120447         50.9          9867.   138655         53.8
 9 Asia      Banglad… 46886859         37.5           684. 51365468         39.3
10 Europe    Belgium   8730405         68            8343.  8989111         69.2
# … with 132 more rows, and 31 more variables: gdpPercap_1957 <dbl>,
#   pop_1962 <dbl>, lifeExp_1962 <dbl>, gdpPercap_1962 <dbl>, pop_1967 <dbl>,
#   lifeExp_1967 <dbl>, gdpPercap_1967 <dbl>, pop_1972 <dbl>,
#   lifeExp_1972 <dbl>, gdpPercap_1972 <dbl>, pop_1977 <dbl>,
#   lifeExp_1977 <dbl>, gdpPercap_1977 <dbl>, pop_1982 <dbl>,
#   lifeExp_1982 <dbl>, gdpPercap_1982 <dbl>, pop_1987 <dbl>,
#   lifeExp_1987 <dbl>, gdpPercap_1987 <dbl>, pop_1992 <dbl>, …
```
…
```r
gap_long <- gap_wide %>%
  pivot_longer(
    cols = pop_1952:gdpPercap_2007,
    names_to = "obstype_year", values_to = "obs_values"
  )
gap_long
```

```
# A tibble: 5,112 × 4
   continent country     obstype_year   obs_values
   <chr>     <chr>       <chr>               <dbl>
 1 Asia      Afghanistan pop_1952        8425333  
 2 Asia      Afghanistan lifeExp_1952         28.8
 3 Asia      Afghanistan gdpPercap_1952      779. 
 4 Asia      Afghanistan pop_1957        9240934  
 5 Asia      Afghanistan lifeExp_1957         30.3
 6 Asia      Afghanistan gdpPercap_1957      821. 
 7 Asia      Afghanistan pop_1962       10267083  
 8 Asia      Afghanistan lifeExp_1962         32.0
 9 Asia      Afghanistan gdpPercap_1962      853. 
10 Asia      Afghanistan pop_1967       11537966  
# … with 5,102 more rows
```
…
```r
gap_long <- gap_wide %>%
  pivot_longer(
    cols = c(-continent, -country),
    names_to = "obstype_year", values_to = "obs_values"
  )
gap_long
```

```
# A tibble: 5,112 × 4
   continent country     obstype_year   obs_values
   <chr>     <chr>       <chr>               <dbl>
 1 Asia      Afghanistan pop_1952        8425333  
 2 Asia      Afghanistan lifeExp_1952         28.8
 3 Asia      Afghanistan gdpPercap_1952      779. 
 4 Asia      Afghanistan pop_1957        9240934  
 5 Asia      Afghanistan lifeExp_1957         30.3
 6 Asia      Afghanistan gdpPercap_1957      821. 
 7 Asia      Afghanistan pop_1962       10267083  
 8 Asia      Afghanistan lifeExp_1962         32.0
 9 Asia      Afghanistan gdpPercap_1962      853. 
10 Asia      Afghanistan pop_1967       11537966  
# … with 5,102 more rows
```
…
```
[1] TRUE
```

```r
gap_normal
```

```
# A tibble: 1,704 × 6
   country      year      pop continent lifeExp gdpPercap
   <chr>       <dbl>    <dbl> <chr>       <dbl>     <dbl>
 1 Afghanistan  1952  8425333 Asia         28.8      779.
 2 Afghanistan  1957  9240934 Asia         30.3      821.
 3 Afghanistan  1962 10267083 Asia         32.0      853.
 4 Afghanistan  1967 11537966 Asia         34.0      836.
 5 Afghanistan  1972 13079460 Asia         36.1      740.
 6 Afghanistan  1977 14880372 Asia         38.4      786.
 7 Afghanistan  1982 12881816 Asia         39.9      978.
 8 Afghanistan  1987 13867957 Asia         40.8      852.
 9 Afghanistan  1992 16317921 Asia         41.7      649.
10 Afghanistan  1997 22227415 Asia         41.8      635.
# … with 1,694 more rows
```

```r
gapminder
```

```
# A tibble: 1,704 × 6
   country      year      pop continent lifeExp gdpPercap
   <chr>       <dbl>    <dbl> <chr>       <dbl>     <dbl>
 1 Afghanistan  1952  8425333 Asia         28.8      779.
 2 Afghanistan  1957  9240934 Asia         30.3      821.
 3 Afghanistan  1962 10267083 Asia         32.0      853.
 4 Afghanistan  1967 11537966 Asia         34.0      836.
 5 Afghanistan  1972 13079460 Asia         36.1      740.
 6 Afghanistan  1977 14880372 Asia         38.4      786.
 7 Afghanistan  1982 12881816 Asia         39.9      978.
 8 Afghanistan  1987 13867957 Asia         40.8      852.
 9 Afghanistan  1992 16317921 Asia         41.7      649.
10 Afghanistan  1997 22227415 Asia         41.8      635.
# … with 1,694 more rows
```
…
Now let's convert the long all the way back to the wide. In the wide format, we
will keep country and continent as ID variables and pivot the observations
across the 3 metrics (`pop`,`lifeExp`,`gdpPercap`) and time (`year`). First we
need to create appropriate labels for all our new variables (time*metric
combinations) and we also need to unify our ID variables to simplify the process
of defining `gap_wide`.


```r
gap_temp <- gap_long_split %>% unite(var_ID, continent, country, sep = "_")
gap_temp
```

```
# A tibble: 5,112 × 4
   var_ID           obs_type   year obs_values
   <chr>            <chr>     <dbl>      <dbl>
 1 Asia_Afghanistan pop        1952  8425333  
 2 Asia_Afghanistan lifeExp    1952       28.8
 3 Asia_Afghanistan gdpPercap  1952      779. 
 4 Asia_Afghanistan pop        1957  9240934  
 5 Asia_Afghanistan lifeExp    1957       30.3
 6 Asia_Afghanistan gdpPercap  1957      821. 
 7 Asia_Afghanistan pop        1962 10267083  
 8 Asia_Afghanistan lifeExp    1962       32.0
 9 Asia_Afghanistan gdpPercap  1962      853. 
10 Asia_Afghanistan pop        1967 11537966  
# … with 5,102 more rows
```

```r
gap_temp <- gap_long_split %>%
    unite(ID_var, continent, country, sep = "_") %>%
    unite(var_names, obs_type, year, sep = "_")
gap_temp
```

```
# A tibble: 5,112 × 3
   ID_var           var_names      obs_values
   <chr>            <chr>               <dbl>
 1 Asia_Afghanistan pop_1952        8425333  
 2 Asia_Afghanistan lifeExp_1952         28.8
 3 Asia_Afghanistan gdpPercap_1952      779. 
 4 Asia_Afghanistan pop_1957        9240934  
 5 Asia_Afghanistan lifeExp_1957         30.3
 6 Asia_Afghanistan gdpPercap_1957      821. 
 7 Asia_Afghanistan pop_1962       10267083  
 8 Asia_Afghanistan lifeExp_1962         32.0
 9 Asia_Afghanistan gdpPercap_1962      853. 
10 Asia_Afghanistan pop_1967       11537966  
# … with 5,102 more rows
```
Using `unite()` we now have a single ID variable which is a combination of
`continent`,`country`,and we have defined variable names. We're now ready to
pipe in `pivot_wider()`


```r
gap_wide_new <- gap_long_split %>%
  unite(ID_var, continent, country, sep = "_") %>%
  unite(var_names, obs_type, year, sep = "_") %>%
  pivot_wider(names_from = var_names, values_from = obs_values)
gap_wide_new
```

```
# A tibble: 142 × 37
   ID_var             pop_1952 lifeExp_1952 gdpPercap_1952 pop_1957 lifeExp_1957
   <chr>                 <dbl>        <dbl>          <dbl>    <dbl>        <dbl>
 1 Asia_Afghanistan    8425333         28.8           779.  9240934         30.3
 2 Europe_Albania      1282697         55.2          1601.  1476505         59.3
 3 Africa_Algeria      9279525         43.1          2449. 10270856         45.7
 4 Africa_Angola       4232095         30.0          3521.  4561361         32.0
 5 Americas_Argentina 17876956         62.5          5911. 19610538         64.4
 6 Oceania_Australia   8691212         69.1         10040.  9712569         70.3
 7 Europe_Austria      6927772         66.8          6137.  6965860         67.5
 8 Asia_Bahrain         120447         50.9          9867.   138655         53.8
 9 Asia_Bangladesh    46886859         37.5           684. 51365468         39.3
10 Europe_Belgium      8730405         68            8343.  8989111         69.2
# … with 132 more rows, and 31 more variables: gdpPercap_1957 <dbl>,
#   pop_1962 <dbl>, lifeExp_1962 <dbl>, gdpPercap_1962 <dbl>, pop_1967 <dbl>,
#   lifeExp_1967 <dbl>, gdpPercap_1967 <dbl>, pop_1972 <dbl>,
#   lifeExp_1972 <dbl>, gdpPercap_1972 <dbl>, pop_1977 <dbl>,
#   lifeExp_1977 <dbl>, gdpPercap_1977 <dbl>, pop_1982 <dbl>,
#   lifeExp_1982 <dbl>, gdpPercap_1982 <dbl>, pop_1987 <dbl>,
#   lifeExp_1987 <dbl>, gdpPercap_1987 <dbl>, pop_1992 <dbl>, …
```
…
```r
gap_wide_betterID <- separate(gap_wide_new, ID_var, c("continent", "country"), sep="_")
gap_wide_betterID <- gap_long_split %>%
    unite(ID_var, continent, country, sep = "_") %>%
    unite(var_names, obs_type, year, sep = "_") %>%
    pivot_wider(names_from = var_names, values_from = obs_values) %>%
    separate(ID_var, c("continent","country"), sep = "_")
gap_wide_betterID
```

```
# A tibble: 142 × 38
   continent country  pop_1952 lifeExp_1952 gdpPercap_1952 pop_1957 lifeExp_1957
   <chr>     <chr>       <dbl>        <dbl>          <dbl>    <dbl>        <dbl>
 1 Asia      Afghani…  8425333         28.8           779.  9240934         30.3
 2 Europe    Albania   1282697         55.2          1601.  1476505         59.3
 3 Africa    Algeria   9279525         43.1          2449. 10270856         45.7
 4 Africa    Angola    4232095         30.0          3521.  4561361         32.0
 5 Americas  Argenti… 17876956         62.5          5911. 19610538         64.4
 6 Oceania   Austral…  8691212         69.1         10040.  9712569         70.3
 7 Europe    Austria   6927772         66.8          6137.  6965860         67.5
 8 Asia      Bahrain    120447         50.9          9867.   138655         53.8
 9 Asia      Banglad… 46886859         37.5           684. 51365468         39.3
10 Europe    Belgium   8730405         68            8343.  8989111         69.2
# … with 132 more rows, and 31 more variables: gdpPercap_1957 <dbl>,
#   pop_1962 <dbl>, lifeExp_1962 <dbl>, gdpPercap_1962 <dbl>, pop_1967 <dbl>,
#   lifeExp_1967 <dbl>, gdpPercap_1967 <dbl>, pop_1972 <dbl>,
#   lifeExp_1972 <dbl>, gdpPercap_1972 <dbl>, pop_1977 <dbl>,
#   lifeExp_1977 <dbl>, gdpPercap_1977 <dbl>, pop_1982 <dbl>,
#   lifeExp_1982 <dbl>, gdpPercap_1982 <dbl>, pop_1987 <dbl>,
#   lifeExp_1987 <dbl>, gdpPercap_1987 <dbl>, pop_1992 <dbl>, …
```
…
