Chapter 6 Exploring Data Frames | Introduction to Data Science using R Workshop
…
It’s unlikely that you’ll often do this directly though, you’ll usually want
to use some criteria. Say we just wanted the rows from Asia:

romania <- gapminder[gapminder$continent == "Asia", ]
romania

# A tibble: 396 x 6
   country      year      pop continent lifeExp gdpPercap
   <chr>       <dbl>    <dbl> <chr>       <dbl>     <dbl>
 1 Afghanistan  1952  8425333 Asia         28.8      779.
 2 Afghanistan  1957  9240934 Asia         30.3      821.
 3 Afghanistan  1962 10267083 Asia         32.0      853.
 4 Afghanistan  1967 11537966 Asia         34.0      836.
 5 Afghanistan  1972 13079460 Asia         36.1      740.
 6 Afghanistan  1977 14880372 Asia         38.4      786.
 7 Afghanistan  1982 12881816 Asia         39.9      978.
 8 Afghanistan  1987 13867957 Asia         40.8      852.
 9 Afghanistan  1992 16317921 Asia         41.7      649.
10 Afghanistan  1997 22227415 Asia         41.8      635.
# ... with 386 more rows
…
Now we can insert this into the first position of the square brackets:

can_mex <- gapminder$country %in% c("Canada", "Mexico")
gapminder[can_mex, ]

# A tibble: 24 x 6
   country  year      pop continent lifeExp gdpPercap
   <chr>   <dbl>    <dbl> <chr>       <dbl>     <dbl>
 1 Canada   1952 14785584 Americas     68.8    11367.
 2 Canada   1957 17010154 Americas     70.0    12490.
 3 Canada   1962 18985849 Americas     71.3    13462.
 4 Canada   1967 20819767 Americas     72.1    16077.
 5 Canada   1972 22284500 Americas     72.9    18971.
 6 Canada   1977 23796400 Americas     74.2    22091.
 7 Canada   1982 25201900 Americas     75.8    22899.
 8 Canada   1987 26549700 Americas     76.9    26627.
 9 Canada   1992 28523502 Americas     78.0    26343.
10 Canada   1997 30305843 Americas     78.6    28955.
# ... with 14 more rows

6.2.1 Challenge 4

Select all the rows in gapminder with data from 1975 and earlier

Solution to Challenge 4

gapminder[gapminder$year <= 1975, ]

# A tibble: 710 x 6
   country      year      pop continent lifeExp gdpPercap
   <chr>       <dbl>    <dbl> <chr>       <dbl>     <dbl>
 1 Afghanistan  1952  8425333 Asia         28.8      779.
 2 Afghanistan  1957  9240934 Asia         30.3      821.
 3 Afghanistan  1962 10267083 Asia         32.0      853.
 4 Afghanistan  1967 11537966 Asia         34.0      836.
 5 Afghanistan  1972 13079460 Asia         36.1      740.
 6 Albania      1952  1282697 Europe       55.2     1601.
 7 Albania      1957  1476505 Europe       59.3     1942.
 8 Albania      1962  1728137 Europe       64.8     2313.
 9 Albania      1967  1984060 Europe       66.2     2760.
10 Albania      1972  2263554 Europe       67.7     3313.
# ... with 700 more rows
…
If we wanted to select a subset of columns, we can specify that in the second
position using a character vector of column names:

gapminder[ , c("country", "year", "lifeExp")]

# A tibble: 1,704 x 3
   country      year lifeExp
   <chr>       <dbl>   <dbl>
 1 Afghanistan  1952    28.8
 2 Afghanistan  1957    30.3
 3 Afghanistan  1962    32.0
 4 Afghanistan  1967    34.0
 5 Afghanistan  1972    36.1
 6 Afghanistan  1977    38.4
 7 Afghanistan  1982    39.9
 8 Afghanistan  1987    40.8
 9 Afghanistan  1992    41.7
10 Afghanistan  1997    41.8
# ... with 1,694 more rows
…
