Chapter 9 Introduction to the bcdata package | Introduction to Data Science using R Workshop
…
`summarise()` regrouping output by 'City' (override with `.groups` argument)

Challenge 2 (10 minutes)

Using dplyr, determine the total number of books within each Library System in British Columbia.

Solution Challenge 2 (10 minutes)

sum_books %>% 
 group_by(`Library System`) %>% 
 summarize(totals = sum(total_books))

`summarise()` ungrouping output (override with `.groups` argument)

# A tibble: 71 x 2
  `Library System`                         totals
  <chr>                                     <dbl>
1 Alert Bay Public Library & Museum          9361
2 Beaver Valley Public Library              25477
3 Bowen Island Public Library               15100
4 Burnaby Public Library                   687751
5 Burns Lake Public Library                 44271
6 Cariboo Regional District Library System 254006
7 Castlegar & District Public Library       75228
8 Chetwynd Public Library                   28674
9 Coquitlam Public Library                  87878
10 Cranbrook Public Library                  71823
# … with 61 more rows
…
