Chapter 8 Joining Related Data | Micro-Analysis
…
install.packages("dplyr")
install.packages("nycflights13")

Then, load the packages:

library(dplyr)
library(nycflights13)

Let’s take a peek at the main nycflights13 dataset, “flights”:

flights

# A tibble: 336,776 × 19
    year month   day dep_time sched_de…¹ dep_d…² arr_t…³ sched…⁴ arr_d…⁵ carrier
   <int> <int> <int>    <int>      <int>   <dbl>   <int>   <int>   <dbl> <chr>  
 1  2013     1     1      517        515       2     830     819      11 UA     
 2  2013     1     1      533        529       4     850     830      20 UA     
 3  2013     1     1      542        540       2     923     850      33 AA     
 4  2013     1     1      544        545      -1    1004    1022     -18 B6     
 5  2013     1     1      554        600      -6     812     837     -25 DL     
 6  2013     1     1      554        558      -4     740     728      12 UA     
 7  2013     1     1      555        600      -5     913     854      19 B6     
 8  2013     1     1      557        600      -3     709     723     -14 EV     
 9  2013     1     1      557        600      -3     838     846      -8 B6     
10  2013     1     1      558        600      -2     753     745       8 AA     
# … with 336,766 more rows, 9 more variables: flight <int>, tailnum <chr>,
#   origin <chr>, dest <chr>, air_time <dbl>, distance <dbl>, hour <dbl>,
#   minute <dbl>, time_hour <dttm>, and abbreviated variable names
#   ¹​sched_dep_time, ²​dep_delay, ³​arr_time, ⁴​sched_arr_time, ⁵​arr_delay

And get some more information about the flights dataset:

?flights

This tells us that the airline name, as opposed to a two-letter carrier abbreviation,
can be found in the airlines dataset, and that the airports dataset gives
more information on the flight destinations.

First, we will drop some variables from flights to make our work more evident.

flights_mini <- flights %>% select(year:day, dep_delay, carrier:dest)
flights_mini

# A tibble: 336,776 × 9
    year month   day dep_delay carrier flight tailnum origin dest 
   <int> <int> <int>     <dbl> <chr>    <int> <chr>   <chr>  <chr>
 1  2013     1     1         2 UA        1545 N14228  EWR    IAH  
 2  2013     1     1         4 UA        1714 N24211  LGA    IAH  
 3  2013     1     1         2 AA        1141 N619AA  JFK    MIA  
 4  2013     1     1        -1 B6         725 N804JB  JFK    BQN  
 5  2013     1     1        -6 DL         461 N668DN  LGA    ATL  
 6  2013     1     1        -4 UA        1696 N39463  EWR    ORD  
 7  2013     1     1        -5 B6         507 N516JB  EWR    FLL  
 8  2013     1     1        -3 EV        5708 N829AS  LGA    IAD  
 9  2013     1     1        -3 B6          79 N593JB  JFK    MCO  
10  2013     1     1        -2 AA         301 N3ALAA  LGA    ORD  
# … with 336,766 more rows
…
8.5 Using left_join()

The syntax for dplyr joins is: xxx_join(x, y, by = "key_variable").

To answer the first question (i.e., number of flights per airline), we need
to join the flights and airlines datasets. We want a left join because we
want to add the airline names from airlines (as our second table) to flights
(our first table). From above, we know that the flights dataset has a variable
called ‘carrier’, and that that same variable is in the airlines dataset – this
is our key (or “by” variable).

left_join(x = flights_mini, y = airlines, by = "carrier")

# A tibble: 336,776 × 10
    year month   day dep_delay carrier flight tailnum origin dest  name         
   <int> <int> <int>     <dbl> <chr>    <int> <chr>   <chr>  <chr> <chr>        
 1  2013     1     1         2 UA        1545 N14228  EWR    IAH   United Air L…
 2  2013     1     1         4 UA        1714 N24211  LGA    IAH   United Air L…
 3  2013     1     1         2 AA        1141 N619AA  JFK    MIA   American Air…
 4  2013     1     1        -1 B6         725 N804JB  JFK    BQN   JetBlue Airw…
 5  2013     1     1        -6 DL         461 N668DN  LGA    ATL   Delta Air Li…
 6  2013     1     1        -4 UA        1696 N39463  EWR    ORD   United Air L…
 7  2013     1     1        -5 B6         507 N516JB  EWR    FLL   JetBlue Airw…
 8  2013     1     1        -3 EV        5708 N829AS  LGA    IAD   ExpressJet A…
 9  2013     1     1        -3 B6          79 N593JB  JFK    MCO   JetBlue Airw…
10  2013     1     1        -2 AA         301 N3ALAA  LGA    ORD   American Air…
# … with 336,766 more rows

We can see that the number of rows has stayed the same: 366,776, but that we
have one new column (at the end) called “name”.

Note that we could have instead used the pipe operator after summoning ‘flights_mini’.

flights_mini %>% left_join(y = airlines, by = "carrier")

# A tibble: 336,776 × 10
    year month   day dep_delay carrier flight tailnum origin dest  name         
   <int> <int> <int>     <dbl> <chr>    <int> <chr>   <chr>  <chr> <chr>        
 1  2013     1     1         2 UA        1545 N14228  EWR    IAH   United Air L…
 2  2013     1     1         4 UA        1714 N24211  LGA    IAH   United Air L…
 3  2013     1     1         2 AA        1141 N619AA  JFK    MIA   American Air…
 4  2013     1     1        -1 B6         725 N804JB  JFK    BQN   JetBlue Airw…
 5  2013     1     1        -6 DL         461 N668DN  LGA    ATL   Delta Air Li…
 6  2013     1     1        -4 UA        1696 N39463  EWR    ORD   United Air L…
 7  2013     1     1        -5 B6         507 N516JB  EWR    FLL   JetBlue Airw…
 8  2013     1     1        -3 EV        5708 N829AS  LGA    IAD   ExpressJet A…
 9  2013     1     1        -3 B6          79 N593JB  JFK    MCO   JetBlue Airw…
10  2013     1     1        -2 AA         301 N3ALAA  LGA    ORD   American Air…
# … with 336,766 more rows
…
8.5.1 Challenge 1 (2 minutes)

How would you add each plane’s manufacture year (rename it “manufacture_year”)
to the flights dataset?

Solution to challenge 1

left_join(flights_mini, planes %>% select(tailnum, manufacture_year = year), by = "tailnum")

# A tibble: 336,776 × 10
   year month   day dep_delay carrier flight tailnum origin dest  manufacture…¹
  <int> <int> <int>     <dbl> <chr>    <int> <chr>   <chr>  <chr>         <int>
1  2013     1     1         2 UA        1545 N14228  EWR    IAH            1999
2  2013     1     1         4 UA        1714 N24211  LGA    IAH            1998
3  2013     1     1         2 AA        1141 N619AA  JFK    MIA            1990
4  2013     1     1        -1 B6         725 N804JB  JFK    BQN            2012
5  2013     1     1        -6 DL         461 N668DN  LGA    ATL            1991
6  2013     1     1        -4 UA        1696 N39463  EWR    ORD            2012
7  2013     1     1        -5 B6         507 N516JB  EWR    FLL            2000
8  2013     1     1        -3 EV        5708 N829AS  LGA    IAD            1998
9  2013     1     1        -3 B6          79 N593JB  JFK    MCO            2004
10  2013     1     1        -2 AA         301 N3ALAA  LGA    ORD              NA
# … with 336,766 more rows, and abbreviated variable name ¹​manufacture_year

## same as this:
flights_mini %>% 
  left_join(planes %>% select(tailnum, manufacture_year = year), by = "tailnum")

# A tibble: 336,776 × 10
   year month   day dep_delay carrier flight tailnum origin dest  manufacture…¹
  <int> <int> <int>     <dbl> <chr>    <int> <chr>   <chr>  <chr>         <int>
1  2013     1     1         2 UA        1545 N14228  EWR    IAH            1999
2  2013     1     1         4 UA        1714 N24211  LGA    IAH            1998
3  2013     1     1         2 AA        1141 N619AA  JFK    MIA            1990
4  2013     1     1        -1 B6         725 N804JB  JFK    BQN            2012
5  2013     1     1        -6 DL         461 N668DN  LGA    ATL            1991
6  2013     1     1        -4 UA        1696 N39463  EWR    ORD            2012
7  2013     1     1        -5 B6         507 N516JB  EWR    FLL            2000
8  2013     1     1        -3 EV        5708 N829AS  LGA    IAD            1998
9  2013     1     1        -3 B6          79 N593JB  JFK    MCO            2004
10  2013     1     1        -2 AA         301 N3ALAA  LGA    ORD              NA
# … with 336,766 more rows, and abbreviated variable name ¹​manufacture_year
…
8.6 Modifying the by argument

8.6.1 Excluding the by argument

We can modify the “by” argument a few ways. See what happens if we don’t
specify a by variable.

## joining without specifying a `by` variable
left_join(flights_mini, airlines)

Joining, by = "carrier"

# A tibble: 336,776 × 10
    year month   day dep_delay carrier flight tailnum origin dest  name         
   <int> <int> <int>     <dbl> <chr>    <int> <chr>   <chr>  <chr> <chr>        
 1  2013     1     1         2 UA        1545 N14228  EWR    IAH   United Air L…
 2  2013     1     1         4 UA        1714 N24211  LGA    IAH   United Air L…
 3  2013     1     1         2 AA        1141 N619AA  JFK    MIA   American Air…
 4  2013     1     1        -1 B6         725 N804JB  JFK    BQN   JetBlue Airw…
 5  2013     1     1        -6 DL         461 N668DN  LGA    ATL   Delta Air Li…
 6  2013     1     1        -4 UA        1696 N39463  EWR    ORD   United Air L…
 7  2013     1     1        -5 B6         507 N516JB  EWR    FLL   JetBlue Airw…
 8  2013     1     1        -3 EV        5708 N829AS  LGA    IAD   ExpressJet A…
 9  2013     1     1        -3 B6          79 N593JB  JFK    MCO   JetBlue Airw…
10  2013     1     1        -2 AA         301 N3ALAA  LGA    ORD   American Air…
# … with 336,766 more rows

R will match by any variable with the same name in both datasets. Be careful -
this might not be what you want!

left_join(flights_mini, planes)

Joining, by = c("year", "tailnum")

# A tibble: 336,776 × 16
    year month   day dep_delay carrier flight tailnum origin dest  type  manuf…¹
   <int> <int> <int>     <dbl> <chr>    <int> <chr>   <chr>  <chr> <chr> <chr>  
 1  2013     1     1         2 UA        1545 N14228  EWR    IAH   <NA>  <NA>   
 2  2013     1     1         4 UA        1714 N24211  LGA    IAH   <NA>  <NA>   
 3  2013     1     1         2 AA        1141 N619AA  JFK    MIA   <NA>  <NA>   
 4  2013     1     1        -1 B6         725 N804JB  JFK    BQN   <NA>  <NA>   
 5  2013     1     1        -6 DL         461 N668DN  LGA    ATL   <NA>  <NA>   
 6  2013     1     1        -4 UA        1696 N39463  EWR    ORD   <NA>  <NA>   
 7  2013     1     1        -5 B6         507 N516JB  EWR    FLL   <NA>  <NA>   
 8  2013     1     1        -3 EV        5708 N829AS  LGA    IAD   <NA>  <NA>   
 9  2013     1     1        -3 B6          79 N593JB  JFK    MCO   <NA>  <NA>   
10  2013     1     1        -2 AA         301 N3ALAA  LGA    ORD   <NA>  <NA>   
# … with 336,766 more rows, 5 more variables: model <chr>, engines <int>,
#   seats <int>, speed <int>, engine <chr>, and abbreviated variable name
#   ¹​manufacturer

The variable “year” exists in both flights_mini and planes, but means different
things. When not specifying the key, R assumed you wanted to join by “year” as
well, which resulted in a lot of NAs!

8.6.2 Joining on multiple keys

You may have noticed earlier that we can join by more than one variable. To do
so, simply use c("variable1", "variable2", "etc") for your keys. Notice that
year, month, day, and origin are in both the flights_mini and weather datasets.

left_join(flights_mini, weather, by = c("year", "month", "day", "origin"))

# A tibble: 8,036,575 × 20
    year month   day dep_delay carrier flight tailnum origin dest   hour  temp
   <int> <int> <int>     <dbl> <chr>    <int> <chr>   <chr>  <chr> <int> <dbl>
 1  2013     1     1         2 UA        1545 N14228  EWR    IAH       1  39.0
 2  2013     1     1         2 UA        1545 N14228  EWR    IAH       2  39.0
 3  2013     1     1         2 UA        1545 N14228  EWR    IAH       3  39.0
 4  2013     1     1         2 UA        1545 N14228  EWR    IAH       4  39.9
 5  2013     1     1         2 UA        1545 N14228  EWR    IAH       5  39.0
 6  2013     1     1         2 UA        1545 N14228  EWR    IAH       6  37.9
 7  2013     1     1         2 UA        1545 N14228  EWR    IAH       7  39.0
 8  2013     1     1         2 UA        1545 N14228  EWR    IAH       8  39.9
 9  2013     1     1         2 UA        1545 N14228  EWR    IAH       9  39.9
10  2013     1     1         2 UA        1545 N14228  EWR    IAH      10  41  
# … with 8,036,565 more rows, and 9 more variables: dewp <dbl>, humid <dbl>,
#   wind_dir <dbl>, wind_speed <dbl>, wind_gust <dbl>, precip <dbl>,
#   pressure <dbl>, visib <dbl>, time_hour <dttm>

You’ll see that we now have over 8 million rows. This is because the “hour”
variable in weather matched many times for each year X month X day X origin
combination, resulting in repeat of information from flights_mini.

What happens if you didn’t know that “year” was in both datasets?

left_join(flights_mini, weather, by = c("month", "day", "origin"))

# A tibble: 8,036,575 × 21
   year.x month   day dep_delay carrier flight tailnum origin dest  year.y  hour
    <int> <int> <int>     <dbl> <chr>    <int> <chr>   <chr>  <chr>  <int> <int>
 1   2013     1     1         2 UA        1545 N14228  EWR    IAH     2013     1
 2   2013     1     1         2 UA        1545 N14228  EWR    IAH     2013     2
 3   2013     1     1         2 UA        1545 N14228  EWR    IAH     2013     3
 4   2013     1     1         2 UA        1545 N14228  EWR    IAH     2013     4
 5   2013     1     1         2 UA        1545 N14228  EWR    IAH     2013     5
 6   2013     1     1         2 UA        1545 N14228  EWR    IAH     2013     6
 7   2013     1     1         2 UA        1545 N14228  EWR    IAH     2013     7
 8   2013     1     1         2 UA        1545 N14228  EWR    IAH     2013     8
 9   2013     1     1         2 UA        1545 N14228  EWR    IAH     2013     9
10   2013     1     1         2 UA        1545 N14228  EWR    IAH     2013    10
# … with 8,036,565 more rows, and 10 more variables: temp <dbl>, dewp <dbl>,
#   humid <dbl>, wind_dir <dbl>, wind_speed <dbl>, wind_gust <dbl>,
#   precip <dbl>, pressure <dbl>, visib <dbl>, time_hour <dttm>
The “year” variable from flights_mini has been renamed “year.x”, and “year”
from “weather” has been renamed “year.y”. (Whenever this happens, variables
ending in “.x” come from the first table, while those ending in “.y” come from
the other table.)

8.6.3 Key variables with different names

We can also match on a key that has a different name in the related tables
(although its values are the same). The variable “faa” in airports is equivalent
to flights_mini’s “dest” variable. Here are three ways of getting the same result.

## matching key name in the `by`
left_join(flights_mini, airports, by = c("dest" = "faa"))

# A tibble: 336,776 × 16
    year month   day dep_delay carrier flight tailnum origin dest  name      lat
   <int> <int> <int>     <dbl> <chr>    <int> <chr>   <chr>  <chr> <chr>   <dbl>
 1  2013     1     1         2 UA        1545 N14228  EWR    IAH   George…  30.0
 2  2013     1     1         4 UA        1714 N24211  LGA    IAH   George…  30.0
 3  2013     1     1         2 AA        1141 N619AA  JFK    MIA   Miami …  25.8
 4  2013     1     1        -1 B6         725 N804JB  JFK    BQN   <NA>     NA  
 5  2013     1     1        -6 DL         461 N668DN  LGA    ATL   Hartsf…  33.6
 6  2013     1     1        -4 UA        1696 N39463  EWR    ORD   Chicag…  42.0
 7  2013     1     1        -5 B6         507 N516JB  EWR    FLL   Fort L…  26.1
 8  2013     1     1        -3 EV        5708 N829AS  LGA    IAD   Washin…  38.9
 9  2013     1     1        -3 B6          79 N593JB  JFK    MCO   Orland…  28.4
10  2013     1     1        -2 AA         301 N3ALAA  LGA    ORD   Chicag…  42.0
# … with 336,766 more rows, and 5 more variables: lon <dbl>, alt <dbl>,
#   tz <dbl>, dst <chr>, tzone <chr>

## renaming key in a select
left_join(flights_mini, airports %>% rename(dest = faa), by = "dest")

# A tibble: 336,776 × 16
    year month   day dep_delay carrier flight tailnum origin dest  name      lat
   <int> <int> <int>     <dbl> <chr>    <int> <chr>   <chr>  <chr> <chr>   <dbl>
 1  2013     1     1         2 UA        1545 N14228  EWR    IAH   George…  30.0
 2  2013     1     1         4 UA        1714 N24211  LGA    IAH   George…  30.0
 3  2013     1     1         2 AA        1141 N619AA  JFK    MIA   Miami …  25.8
 4  2013     1     1        -1 B6         725 N804JB  JFK    BQN   <NA>     NA  
 5  2013     1     1        -6 DL         461 N668DN  LGA    ATL   Hartsf…  33.6
 6  2013     1     1        -4 UA        1696 N39463  EWR    ORD   Chicag…  42.0
 7  2013     1     1        -5 B6         507 N516JB  EWR    FLL   Fort L…  26.1
 8  2013     1     1        -3 EV        5708 N829AS  LGA    IAD   Washin…  38.9
 9  2013     1     1        -3 B6          79 N593JB  JFK    MCO   Orland…  28.4
10  2013     1     1        -2 AA         301 N3ALAA  LGA    ORD   Chicag…  42.0
# … with 336,766 more rows, and 5 more variables: lon <dbl>, alt <dbl>,
#   tz <dbl>, dst <chr>, tzone <chr>

## syntax with pipe operator
flights_mini %>% left_join(airports %>% rename(dest = faa))

Joining, by = "dest"

# A tibble: 336,776 × 16
    year month   day dep_delay carrier flight tailnum origin dest  name      lat
   <int> <int> <int>     <dbl> <chr>    <int> <chr>   <chr>  <chr> <chr>   <dbl>
 1  2013     1     1         2 UA        1545 N14228  EWR    IAH   George…  30.0
 2  2013     1     1         4 UA        1714 N24211  LGA    IAH   George…  30.0
 3  2013     1     1         2 AA        1141 N619AA  JFK    MIA   Miami …  25.8
 4  2013     1     1        -1 B6         725 N804JB  JFK    BQN   <NA>     NA  
 5  2013     1     1        -6 DL         461 N668DN  LGA    ATL   Hartsf…  33.6
 6  2013     1     1        -4 UA        1696 N39463  EWR    ORD   Chicag…  42.0
 7  2013     1     1        -5 B6         507 N516JB  EWR    FLL   Fort L…  26.1
 8  2013     1     1        -3 EV        5708 N829AS  LGA    IAD   Washin…  38.9
 9  2013     1     1        -3 B6          79 N593JB  JFK    MCO   Orland…  28.4
10  2013     1     1        -2 AA         301 N3ALAA  LGA    ORD   Chicag…  42.0
# … with 336,766 more rows, and 5 more variables: lon <dbl>, alt <dbl>,
#   tz <dbl>, dst <chr>, tzone <chr>
…
Hint: use the group_by() and summarize() functions we learned in the dplyr lesson.

Solution to challenge 2

## first, find the days where the temperature fell below 32 F (freezing)
freezing <- weather %>%
  group_by(month, day) %>%
  summarize(mean_temp = mean(temp, na.rm = TRUE), .groups = "drop") %>%
  filter(mean_temp < 32)

## inner join to get only days with freezing temperature
flights_mini %>% inner_join(freezing, by = c("month", "day")) ## number of rows

# A tibble: 29,116 × 10
   year month   day dep_delay carrier flight tailnum origin dest  mean_temp
  <int> <int> <int>     <dbl> <chr>    <int> <chr>   <chr>  <chr>     <dbl>
1  2013     1     2        43 B6         707 N580JB  JFK    SJU        28.7
2  2013     1     2       156 B6          22 N636JB  JFK    SYR        28.7
3  2013     1     2        -2 US        1030 N162UW  EWR    CLT        28.7
4  2013     1     2        -3 UA        1453 N76515  EWR    IAH        28.7
5  2013     1     2        -5 AA        1141 N621AA  JFK    MIA        28.7
6  2013     1     2         7 UA         407 N493UA  LGA    IAH        28.7
7  2013     1     2        -6 B6         725 N624JB  JFK    BQN        28.7
8  2013     1     2        -6 B6         125 N637JB  JFK    FLL        28.7
9  2013     1     2        -6 B6          49 N658JB  JFK    PBI        28.7
10  2013     1     2        -6 B6         371 N805JB  LGA    FLL        28.7
# … with 29,106 more rows
…
